<?xml version="1.0" ?> 

<robot xmlns:xacro="http://www.ros.org/wiki/xacro" name="ur5_robotiq_table">

 <link name="world"/>

 <xacro:include filename="$(find ur_description)/urdf/ur5.urdf.xacro"/>
 <xacro:ur5_robot prefix="" joint_limited="false"/>
  <joint name="world_ur5" type="fixed">
	<parent link="world" />
	<child link="base_link" />
	<origin xyz="0 0 0" rpy="0 0 0"/>
  </joint>

 <xacro:include filename="$(find robotiq_85_description)/urdf/robotiq_85_gripper.urdf.xacro"/>
 <xacro:robotiq_85_gripper prefix=""/>
  <joint name="ur5_to_robotiq_85" type="fixed">
	<parent link="ee_link" />
	<child link="gripper_base_link" />
	<origin xyz="0 0 0" rpy="0 0 0"/>
  </joint>

 <xacro:include filename="$(find table_description)/urdf/table.urdf.xacro"/>
 <xacro:table prefix="" parent="world">
	<origin xyz="0 0 0" rpy="0 0 0"/>
 </xacro:table>
 
 <xacro:include filename="$(find realsense2_description)/urdf/_d415.urdf.xacro"/>
<xacro:arg name="use_nominal_extrinsics" default="false" />
  <xacro:sensor_d415 parent="world" use_nominal_extrinsics="$(arg use_nominal_extrinsics)">
     <origin xyz="-0.6385 0.2 0.56" rpy="0 1.57079506 0"/>
  </xacro:sensor_d415>
  
  
  <link name="camera_frame" />
  <joint name="d415_to_camera" type="fixed">
    <parent link="camera_link"/>
    <child link="camera_frame"/>
    <!--origin xyz="0 0 0" rpy="0 0 3.14159"/-->
    <origin xyz="0 0 0" rpy="1.57079506 0 1.57079506"/>
  </joint>
  
</robot>
